["\n./\n\n\n\n\n\n\n\nTab","!\n1\n\n\n\n\n\n\n\nQ","@\n2\n\n\n\n\n\n\n\nW","#\n3\n\n\n\n\n\n\n\nE","$\n4\n\n\n\n\n\n\n\nR","%\n5\n\n\n\n\n\n\n\nT",{x:1},"^\n6\n\n\n\n\n\n\n\nY","&\n7\n\n\n\n\n\n\n\nU","*\n8\n\n\n\n\n\n\n\nI","(\n9\n\n\n\n\n\n\n\nO",")\n0\n\n\n\n\n\n\n\nP","¨\n`\n\n\n\n\n\n\n\"\n'"],
[{a:7},"Esc",{a:4},"\n+\n\n\n\n\n\n\n\nA","_\n-\n\n\n\n\n\n\n\nS","\n=\n\n\n\n\n\n\n\nD","{\n[\n\n\n\n\n\n\n\nF","}\n]\n\n\n\n\n\n\n\nG",{x:1},"home\n←\n\n\n\n\n\n\n\nH",{f:2},"pgUp\n↓\n\n\n\n\n\n\n\nJ","pgDn\n↑\n\n\n\n\n\n\n\nK",{f:3},"end\n→\n\n\n\n\n\n\n\nL","|\n\\\n\n\n\n\n\n\n:\n;",{a:7},"↲"],
["⬆",{f:2},"Z",{a:4,f:3},"\ndel\n\n\n\n\n\n\n\nX","Ç\nç\n\n\n\n\n\n\n\nC",{f:2},"˘\n^\n\n\n\n\n\n\n\nV",{a:7,f:3},"B",{x:1,a:4,f:2},"S-pgDn\nA-↓\n\n\n\n\n\n\n\nN","S-PgUp\nA-↑\n\n\n\n\n\n\n\nM",{f:3},"`\n~\n\n\n\n\n\n\n<\n,",{a:5},">\n\n\n\n\n\n.",{a:4},"É\né\n\n\n\n\n\n\n?\n/",{a:7},"⬆"],
["Ctrl","Win","Alt","L4","L3",{f:2},"Bcksp",{x:1,f:3},"Spc","L3","L4","Atl","Win","Ctrl"]
