<?xml version="1.0" encoding="UTF-8" standalone="no"?>
<!-- Created with Inkscape (http://www.inkscape.org/) -->

<svg
   xmlns:dc="http://purl.org/dc/elements/1.1/"
   xmlns:cc="http://creativecommons.org/ns#"
   xmlns:rdf="http://www.w3.org/1999/02/22-rdf-syntax-ns#"
   xmlns:svg="http://www.w3.org/2000/svg"
   xmlns="http://www.w3.org/2000/svg"
   xmlns:sodipodi="http://sodipodi.sourceforge.net/DTD/sodipodi-0.dtd"
   xmlns:inkscape="http://www.inkscape.org/namespaces/inkscape"
   width="148.40074mm"
   height="210.99715mm"
   viewBox="0 0 148.40074 210.99715"
   version="1.1"
   id="svg1493"
   inkscape:version="0.92.5 (2060ec1f9f, 2020-04-08)"
   sodipodi:docname="top_bottom_1-8in.svg">
  <defs
     id="defs1487">
    <marker
       style="overflow:visible"
       refY="0"
       refX="0"
       orient="auto"
       id="DistanceX">
      <path
         id="path2059"
         style="stroke:#000000;stroke-width:0.5"
         d="M 3,-3 -3,3 M 0,-5 V 5"
         inkscape:connector-curvature="0" />
    </marker>
    <pattern
       y="0"
       x="0"
       width="8"
       patternUnits="userSpaceOnUse"
       id="Hatch"
       height="8">
      <path
         id="path2062"
         stroke-width="0.25"
         stroke="#000000"
         linecap="square"
         d="M8 4 l-4,4" />
      <path
         id="path2064"
         stroke-width="0.25"
         stroke="#000000"
         linecap="square"
         d="M6 2 l-4,4" />
      <path
         id="path2066"
         stroke-width="0.25"
         stroke="#000000"
         linecap="square"
         d="M4 0 l-4,4" />
    </pattern>
    <symbol
       id="*MODEL_SPACE" />
    <symbol
       id="*PAPER_SPACE" />
    <marker
       style="overflow:visible"
       refY="0"
       refX="0"
       orient="auto"
       id="DistanceX-3">
      <path
         id="path2377"
         style="stroke:#000000;stroke-width:0.5"
         d="M 3,-3 -3,3 M 0,-5 V 5"
         inkscape:connector-curvature="0" />
    </marker>
    <pattern
       y="0"
       x="0"
       width="8"
       patternUnits="userSpaceOnUse"
       id="Hatch-6"
       height="8">
      <path
         id="path2380"
         stroke-width="0.25"
         stroke="#000000"
         linecap="square"
         d="M8 4 l-4,4" />
      <path
         id="path2382"
         stroke-width="0.25"
         stroke="#000000"
         linecap="square"
         d="M6 2 l-4,4" />
      <path
         id="path2384"
         stroke-width="0.25"
         stroke="#000000"
         linecap="square"
         d="M4 0 l-4,4" />
    </pattern>
    <symbol
       id="*MODEL_SPACE-0" />
    <symbol
       id="*PAPER_SPACE-6" />
  </defs>
  <sodipodi:namedview
     id="base"
     pagecolor="#ffffff"
     bordercolor="#666666"
     borderopacity="1.0"
     inkscape:pageopacity="0.0"
     inkscape:pageshadow="2"
     inkscape:zoom="0.7"
     inkscape:cx="286.43131"
     inkscape:cy="499.41073"
     inkscape:document-units="mm"
     inkscape:current-layer="layer1"
     showgrid="false"
     fit-margin-top="10"
     fit-margin-right="10"
     fit-margin-bottom="10"
     fit-margin-left="10"
     inkscape:window-width="1434"
     inkscape:window-height="877"
     inkscape:window-x="269"
     inkscape:window-y="0"
     inkscape:window-maximized="0" />
  <metadata
     id="metadata1490">
    <rdf:RDF>
      <cc:Work
         rdf:about="">
        <dc:format>image/svg+xml</dc:format>
        <dc:type
           rdf:resource="http://purl.org/dc/dcmitype/StillImage" />
        <dc:title></dc:title>
      </cc:Work>
    </rdf:RDF>
  </metadata>
  <g
     inkscape:label="Layer 1"
     inkscape:groupmode="layer"
     id="layer1"
     transform="translate(-24.285173,5.9303318)">
    <g
       id="g2900"
       transform="translate(33.180173,2.9646682)">
      <g
         transform="matrix(1,0,0,-1,-2.946,-7.895)"
         id="Polyline010">
        <path
           style="fill:none;fill-rule:evenodd;stroke:#191919;stroke-width:0.34999999;stroke-miterlimit:4;stroke-dasharray:none"
           d="m 13.676,-77.825 v -0.6 h -0.8 v -12.65 h 0.8 v -0.6 h 13.85 v 0.6 h 0.8 v 12.65 h -0.8 v 0.6 h -13.85"
           id="Polyline010_w0000"
           inkscape:connector-curvature="0" />
        <title
           id="title2695">b'K11'</title>
      </g>
      <g
         transform="matrix(1,0,0,-1,-2.946,-7.895)"
         id="Polyline013">
        <path
           style="fill:none;fill-rule:evenodd;stroke:#191919;stroke-width:0.34999999;stroke-miterlimit:4;stroke-dasharray:none"
           d="m 70.826,-77.825 v -0.6 h -0.8 v -12.65 h 0.8 v -0.6 h 13.85 v 0.6 h 0.8 v 12.65 h -0.8 v 0.6 h -13.85"
           id="Polyline013_w0000"
           inkscape:connector-curvature="0" />
        <title
           id="title2699">b'K14'</title>
      </g>
      <g
         transform="matrix(1,0,0,-1,-2.946,-7.895)"
         id="Polyline012">
        <path
           style="fill:none;fill-rule:evenodd;stroke:#191919;stroke-width:0.34999999;stroke-miterlimit:4;stroke-dasharray:none"
           d="m 51.776,-77.825 v -0.6 h -0.8 v -12.65 h 0.8 v -0.6 h 13.85 v 0.6 h 0.8 v 12.65 h -0.8 v 0.6 h -13.85"
           id="Polyline012_w0000"
           inkscape:connector-curvature="0" />
        <title
           id="title2703">b'K13'</title>
      </g>
      <g
         transform="matrix(1,0,0,-1,-2.946,-7.895)"
         id="Polyline015">
        <path
           style="fill:none;fill-rule:evenodd;stroke:#191919;stroke-width:0.34999999;stroke-miterlimit:4;stroke-dasharray:none"
           d="m 108.926,-77.825 v -0.6 h -0.8 v -12.65 h 0.8 v -0.6 h 13.849 v 0.6 h 0.8 v 12.65 h -0.8 v 0.6 h -13.849"
           id="Polyline015_w0000"
           inkscape:connector-curvature="0" />
        <title
           id="title2707">b'K16'</title>
      </g>
      <g
         transform="matrix(1,0,0,-1,-2.946,-7.895)"
         id="Polyline014">
        <path
           style="fill:none;fill-rule:evenodd;stroke:#191919;stroke-width:0.34999999;stroke-miterlimit:4;stroke-dasharray:none"
           d="m 89.876,-77.825 v -0.6 h -0.8 v -12.65 h 0.8 v -0.6 h 13.85 v 0.6 h 0.799 v 12.65 h -0.799 v 0.6 h -13.85"
           id="Polyline014_w0000"
           inkscape:connector-curvature="0" />
        <title
           id="title2711">b'K15'</title>
      </g>
      <g
         transform="matrix(1,0,0,-1,-2.946,-7.895)"
         id="Polyline016">
        <path
           style="fill:none;fill-rule:evenodd;stroke:#191919;stroke-width:0.34999999;stroke-miterlimit:4;stroke-dasharray:none"
           d="m 13.676,-58.775 v -0.6 h -0.8 v -12.65 h 0.8 v -0.6 h 13.85 v 0.6 h 0.8 v 12.65 h -0.8 v 0.6 h -13.85"
           id="Polyline016_w0000"
           inkscape:connector-curvature="0" />
        <title
           id="title2715">b'K21'</title>
      </g>
      <g
         transform="matrix(1,0,0,-1,-2.946,-7.895)"
         id="Polyline011">
        <path
           style="fill:none;fill-rule:evenodd;stroke:#191919;stroke-width:0.34999999;stroke-miterlimit:4;stroke-dasharray:none"
           d="m 32.726,-77.825 v -0.6 h -0.8 v -12.65 h 0.8 v -0.6 h 13.85 v 0.6 h 0.8 v 12.65 h -0.8 v 0.6 h -13.85"
           id="Polyline011_w0000"
           inkscape:connector-curvature="0" />
        <title
           id="title2719">b'K12'</title>
      </g>
      <g
         transform="matrix(1,0,0,-1,-2.946,-7.895)"
         id="Polyline017">
        <path
           style="fill:none;fill-rule:evenodd;stroke:#191919;stroke-width:0.34999999;stroke-miterlimit:4;stroke-dasharray:none"
           d="m 32.726,-58.775 v -0.6 h -0.8 v -12.65 h 0.8 v -0.6 h 13.85 v 0.6 h 0.8 v 12.65 h -0.8 v 0.6 h -13.85"
           id="Polyline017_w0000"
           inkscape:connector-curvature="0" />
        <title
           id="title2723">b'K22'</title>
      </g>
      <g
         transform="matrix(1,0,0,-1,-2.946,-7.895)"
         id="Polyline018">
        <path
           style="fill:none;fill-rule:evenodd;stroke:#191919;stroke-width:0.34999999;stroke-miterlimit:4;stroke-dasharray:none"
           d="m 51.776,-58.775 v -0.6 h -0.8 v -12.65 h 0.8 v -0.6 h 13.85 v 0.6 h 0.8 v 12.65 h -0.8 v 0.6 h -13.85"
           id="Polyline018_w0000"
           inkscape:connector-curvature="0" />
        <title
           id="title2727">b'K23'</title>
      </g>
      <g
         transform="matrix(1,0,0,-1,-2.946,-7.895)"
         id="Polyline019">
        <path
           style="fill:none;fill-rule:evenodd;stroke:#191919;stroke-width:0.34999999;stroke-miterlimit:4;stroke-dasharray:none"
           d="m 70.826,-58.775 v -0.6 h -0.8 v -12.65 h 0.8 v -0.6 h 13.85 v 0.6 h 0.8 v 12.65 h -0.8 v 0.6 h -13.85"
           id="Polyline019_w0000"
           inkscape:connector-curvature="0" />
        <title
           id="title2731">b'K24'</title>
      </g>
      <g
         transform="matrix(1,0,0,-1,-2.946,-7.895)"
         id="Polyline020">
        <path
           style="fill:none;fill-rule:evenodd;stroke:#191919;stroke-width:0.34999999;stroke-miterlimit:4;stroke-dasharray:none"
           d="m 89.876,-58.775 v -0.6 h -0.8 v -12.65 h 0.8 v -0.6 h 13.85 v 0.6 h 0.799 v 12.65 h -0.799 v 0.6 h -13.85"
           id="Polyline020_w0000"
           inkscape:connector-curvature="0" />
        <title
           id="title2735">b'K25'</title>
      </g>
      <g
         transform="matrix(1,0,0,-1,-2.946,-7.895)"
         id="Polyline021">
        <path
           style="fill:none;fill-rule:evenodd;stroke:#191919;stroke-width:0.34999999;stroke-miterlimit:4;stroke-dasharray:none"
           d="m 108.926,-58.775 v -0.6 h -0.8 v -12.65 h 0.8 v -0.6 h 13.849 v 0.6 h 0.8 v 12.65 h -0.8 v 0.6 h -13.849"
           id="Polyline021_w0000"
           inkscape:connector-curvature="0" />
        <title
           id="title2739">b'K26'</title>
      </g>
      <g
         transform="matrix(1,0,0,-1,-2.946,-7.895)"
         id="Polyline024">
        <path
           style="fill:none;fill-rule:evenodd;stroke:#191919;stroke-width:0.34999999;stroke-miterlimit:4;stroke-dasharray:none"
           d="m 13.676,-39.725 v -0.6 h -0.8 v -12.65 h 0.8 v -0.6 h 13.85 v 0.6 h 0.8 v 12.65 h -0.8 v 0.6 h -13.85"
           id="Polyline024_w0000"
           inkscape:connector-curvature="0" />
        <title
           id="title2743">b'K31'</title>
      </g>
      <g
         transform="matrix(1,0,0,-1,-2.946,-7.895)"
         id="Polyline025">
        <path
           style="fill:none;fill-rule:evenodd;stroke:#191919;stroke-width:0.34999999;stroke-miterlimit:4;stroke-dasharray:none"
           d="m 32.726,-39.725 v -0.6 h -0.8 v -12.65 h 0.8 v -0.6 h 13.85 v 0.6 h 0.8 v 12.65 h -0.8 v 0.6 h -13.85"
           id="Polyline025_w0000"
           inkscape:connector-curvature="0" />
        <title
           id="title2747">b'K32'</title>
      </g>
      <g
         transform="matrix(1,0,0,-1,-2.946,-7.895)"
         id="Polyline026">
        <path
           style="fill:none;fill-rule:evenodd;stroke:#191919;stroke-width:0.34999999;stroke-miterlimit:4;stroke-dasharray:none"
           d="m 51.776,-39.725 v -0.6 h -0.8 v -12.65 h 0.8 v -0.6 h 13.85 v 0.6 h 0.8 v 12.65 h -0.8 v 0.6 h -13.85"
           id="Polyline026_w0000"
           inkscape:connector-curvature="0" />
        <title
           id="title2751">b'K33'</title>
      </g>
      <g
         transform="matrix(1,0,0,-1,-2.946,-7.895)"
         id="Polyline027">
        <path
           style="fill:none;fill-rule:evenodd;stroke:#191919;stroke-width:0.34999999;stroke-miterlimit:4;stroke-dasharray:none"
           d="m 70.826,-39.725 v -0.6 h -0.8 v -12.65 h 0.8 v -0.6 h 13.85 v 0.6 h 0.8 v 12.65 h -0.8 v 0.6 h -13.85"
           id="Polyline027_w0000"
           inkscape:connector-curvature="0" />
        <title
           id="title2755">b'K34'</title>
      </g>
      <g
         transform="matrix(1,0,0,-1,-2.946,-7.895)"
         id="Polyline028">
        <path
           style="fill:none;fill-rule:evenodd;stroke:#191919;stroke-width:0.34999999;stroke-miterlimit:4;stroke-dasharray:none"
           d="m 89.876,-39.725 v -0.6 h -0.8 v -12.65 h 0.8 v -0.6 h 13.85 v 0.6 h 0.799 v 12.65 h -0.799 v 0.6 h -13.85"
           id="Polyline028_w0000"
           inkscape:connector-curvature="0" />
        <title
           id="title2759">b'K35'</title>
      </g>
      <g
         transform="matrix(1,0,0,-1,-2.946,-7.895)"
         id="Polyline029">
        <path
           style="fill:none;fill-rule:evenodd;stroke:#191919;stroke-width:0.34999999;stroke-miterlimit:4;stroke-dasharray:none"
           d="m 108.926,-39.725 v -0.6 h -0.8 v -12.65 h 0.8 v -0.6 h 13.849 v 0.6 h 0.8 v 12.65 h -0.8 v 0.6 h -13.849"
           id="Polyline029_w0000"
           inkscape:connector-curvature="0" />
        <title
           id="title2763">b'K36'</title>
      </g>
      <g
         transform="matrix(1,0,0,-1,-2.946,-7.895)"
         id="Polyline030">
        <path
           style="fill:none;fill-rule:evenodd;stroke:#191919;stroke-width:0.34999999;stroke-miterlimit:4;stroke-dasharray:none"
           d="m 13.676,-20.675 v -0.6 h -0.8 v -12.65 h 0.8 v -0.6 h 13.85 v 0.6 h 0.8 v 12.65 h -0.8 v 0.6 h -13.85"
           id="Polyline030_w0000"
           inkscape:connector-curvature="0" />
        <title
           id="title2767">b'K41'</title>
      </g>
      <g
         transform="matrix(1,0,0,-1,-2.946,-7.895)"
         id="Polyline031">
        <path
           style="fill:none;fill-rule:evenodd;stroke:#191919;stroke-width:0.34999999;stroke-miterlimit:4;stroke-dasharray:none"
           d="m 32.726,-20.675 v -0.6 h -0.8 v -12.65 h 0.8 v -0.6 h 13.85 v 0.6 h 0.8 v 12.65 h -0.8 v 0.6 h -13.85"
           id="Polyline031_w0000"
           inkscape:connector-curvature="0" />
        <title
           id="title2771">b'K42'</title>
      </g>
      <g
         transform="matrix(1,0,0,-1,-2.946,-7.895)"
         id="Polyline032">
        <path
           style="fill:none;fill-rule:evenodd;stroke:#191919;stroke-width:0.34999999;stroke-miterlimit:4;stroke-dasharray:none"
           d="m 51.776,-20.675 v -0.6 h -0.8 v -12.65 h 0.8 v -0.6 h 13.85 v 0.6 h 0.8 v 12.65 h -0.8 v 0.6 h -13.85"
           id="Polyline032_w0000"
           inkscape:connector-curvature="0" />
        <title
           id="title2775">b'K43'</title>
      </g>
      <g
         transform="matrix(1,0,0,-1,-2.946,-7.895)"
         id="Polyline033">
        <path
           style="fill:none;fill-rule:evenodd;stroke:#191919;stroke-width:0.34999999;stroke-miterlimit:4;stroke-dasharray:none"
           d="m 70.826,-20.675 v -0.6 h -0.8 v -12.65 h 0.8 v -0.6 h 13.85 v 0.6 h 0.8 v 12.65 h -0.8 v 0.6 h -13.85"
           id="Polyline033_w0000"
           inkscape:connector-curvature="0" />
        <title
           id="title2779">b'K44'</title>
      </g>
      <g
         transform="matrix(1,0,0,-1,-2.946,-7.895)"
         id="Polyline034">
        <path
           style="fill:none;fill-rule:evenodd;stroke:#191919;stroke-width:0.34999999;stroke-miterlimit:4;stroke-dasharray:none"
           d="m 89.876,-20.675 v -0.6 h -0.8 v -12.65 h 0.8 v -0.6 h 13.85 v 0.6 h 0.799 v 12.65 h -0.799 v 0.6 h -13.85"
           id="Polyline034_w0000"
           inkscape:connector-curvature="0" />
        <title
           id="title2783">b'K45'</title>
      </g>
      <g
         transform="matrix(1,0,0,-1,-2.946,-7.895)"
         id="Polyline035">
        <path
           style="fill:none;fill-rule:evenodd;stroke:#191919;stroke-width:0.34999999;stroke-miterlimit:4;stroke-dasharray:none"
           d="m 108.926,-20.675 v -0.6 h -0.8 v -12.65 h 0.8 v -0.6 h 13.849 v 0.6 h 0.8 v 12.65 h -0.8 v 0.6 h -13.849"
           id="Polyline035_w0000"
           inkscape:connector-curvature="0" />
        <title
           id="title2787">b'K46'</title>
      </g>
      <g
         transform="matrix(1,0,0,-1,-2.946,-7.895)"
         id="Sketch006">
        <circle
           id="circle2790"
           style="fill:none;stroke:#000000;stroke-width:0.34999999;stroke-miterlimit:4;stroke-dasharray:none"
           r="1.6"
           cy="-13.675"
           cx="8.7259998" />
        <circle
           id="circle2792"
           style="fill:none;stroke:#000000;stroke-width:0.34999999;stroke-miterlimit:4;stroke-dasharray:none"
           r="1.6"
           cy="-13.675"
           cx="127.726" />
        <circle
           id="circle2794"
           style="fill:none;stroke:#000000;stroke-width:0.34999999;stroke-miterlimit:4;stroke-dasharray:none"
           r="1.6"
           cy="-13.675"
           cx="68.225998" />
        <circle
           id="circle2796"
           style="fill:none;stroke:#000000;stroke-width:0.34999999;stroke-miterlimit:4;stroke-dasharray:none"
           r="1.6"
           cy="-98.675003"
           cx="8.7259998" />
        <circle
           id="circle2798"
           style="fill:none;stroke:#000000;stroke-width:0.34999999;stroke-miterlimit:4;stroke-dasharray:none"
           r="1.6"
           cy="-98.675003"
           cx="68.225998" />
        <circle
           id="circle2800"
           style="fill:none;stroke:#000000;stroke-width:0.34999999;stroke-miterlimit:4;stroke-dasharray:none"
           r="1.6"
           cy="-98.675003"
           cx="127.726" />
        <title
           id="title2802">b'holes_M3'</title>
      </g>
      <g
         transform="matrix(1,0,0,-1,-2.946,-7.895)"
         id="Sketch005">
        <path
           style="fill:none;fill-rule:evenodd;stroke:#000000;stroke-width:0.34999999;stroke-miterlimit:4;stroke-dasharray:none"
           d="m 132.226,-13.175 v -86 a 4,4 0 0 0 -4,-4 h -120 a 4,4 0 0 0 -4,4 v 86 a 4,4 0 0 0 4,4 h 120 a 4,4 0 0 0 4,-4"
           id="Sketch005_w0000"
           inkscape:connector-curvature="0" />
        <title
           id="title2806">b'base'</title>
      </g>
    </g>
    <g
       id="g3459"
       transform="translate(33.230915,99.611815)">
      <g
         transform="matrix(1,0,0,-1,-2.946,-7.895)"
         id="Sketch005-7">
        <path
           style="fill:none;fill-rule:evenodd;stroke:#000000;stroke-width:0.34999999;stroke-miterlimit:4;stroke-dasharray:none"
           d="m 132.226,-13.175 v -86 a 4,4 0 0 0 -4,-4 h -120 a 4,4 0 0 0 -4,4 v 86 a 4,4 0 0 0 4,4 h 120 a 4,4 0 0 0 4,-4"
           id="Sketch005_w0000-4"
           inkscape:connector-curvature="0" />
        <title
           id="title3422">b'base'</title>
      </g>
      <g
         transform="matrix(1,0,0,-1,-2.946,-7.895)"
         id="Sketch009">
        <circle
           id="circle3425"
           style="fill:none;stroke:#000000;stroke-width:0.34999999;stroke-miterlimit:4;stroke-dasharray:none"
           r="1.1"
           cy="-13.675"
           cx="8.7259998" />
        <circle
           id="circle3427"
           style="fill:none;stroke:#000000;stroke-width:0.34999999;stroke-miterlimit:4;stroke-dasharray:none"
           r="1.1"
           cy="-13.675"
           cx="127.726" />
        <circle
           id="circle3429"
           style="fill:none;stroke:#000000;stroke-width:0.34999999;stroke-miterlimit:4;stroke-dasharray:none"
           r="1.1"
           cy="-13.675"
           cx="68.225998" />
        <circle
           id="circle3431"
           style="fill:none;stroke:#000000;stroke-width:0.34999999;stroke-miterlimit:4;stroke-dasharray:none"
           r="1.1"
           cy="-98.675003"
           cx="8.7259998" />
        <circle
           id="circle3433"
           style="fill:none;stroke:#000000;stroke-width:0.34999999;stroke-miterlimit:4;stroke-dasharray:none"
           r="1.1"
           cy="-98.675003"
           cx="68.225998" />
        <circle
           id="circle3435"
           style="fill:none;stroke:#000000;stroke-width:0.34999999;stroke-miterlimit:4;stroke-dasharray:none"
           r="1.1"
           cy="-98.675003"
           cx="127.726" />
        <title
           id="title3437">b'tap_M3'</title>
      </g>
    </g>
  </g>
</svg>
