999
FreeCAD v0.19 24366 (Git)
  0
SECTION
  2
HEADER
  9
$ACADVER
  1
AC1014
  9
$ACADMAINTVER
 70
     9
  9
$DWGCODEPAGE
  3
ANSI_1252
  9
$TEXTSTYLE
  7
STANDARD
  9
$DIMSTYLE
  2
STANDARD
  9
$DIMTXSTY
  7
STANDARD
  9
$CMLSTYLE
  2
STANDARD
  9
$PEXTMAX
 10
50
 20
50
 30
50
  9
$PEXTMIN
 10
0
 20
0
 30
0
  9
$HANDSEED
  5
FFFF
  0
ENDSEC
  0
SECTION
  2
CLASSES
  0
CLASS
  1
ACDBDICTIONARYWDFLT
  2
AcDbDictionaryWithDefault
  3
ObjectDBX Classes
 90
        0
280
     0
281
     0
  0
CLASS
  1
XRECORD
  2
AcDbXrecord
  3
ObjectDBX Classes
 90
        0
280
     0
281
     0
  0
CLASS
  1
LWPOLYLINE
  2
AcDbPolyline
  3
ObjectDBX Classes
 90
        0
280
     0
281
     1
  0
ENDSEC
  0
SECTION
  2
TABLES
  0
TABLE
  2
VPORT
  5
20
330
0
100
AcDbSymbolTable
 70
     1
  0
VPORT
  5
21
330
20
100
AcDbSymbolTableRecord
100
AcDbViewportTableRecord
  2
*ACTIVE
 70
     0
  0
ENDTAB
  0
TABLE
  2
LTYPE
  5
22
330
0
100
AcDbSymbolTable
 70
     1
  0
LTYPE
  5
23
330
21
100
AcDbSymbolTableRecord
100
AcDbLinetypeTableRecord
  2
BYBLOCK
 70
     0
  3

 72
    65
 73
     0
 40
0.0
  0
LTYPE
  5
24
330
21
100
AcDbSymbolTableRecord
100
AcDbLinetypeTableRecord
  2
BYLAYER
 70
     0
  3

 72
    65
 73
     0
 40
0.0
  0
LTYPE
  5
25
330
21
100
AcDbSymbolTableRecord
100
AcDbLinetypeTableRecord
  2
CONTINUOUS
 70
     0
  3
Solid line
 72
    65
 73
     0
 40
0.0
  0
ENDTAB
  0
TABLE
  2
LAYER
  5
A5C
330
0
100
AcDbSymbolTable
 70
3
  0
LAYER
  5
A5D
330
A5C
100
AcDbSymbolTableRecord
100
AcDbLayerTableRecord
  2
0
 70
   0
 62
   7
  6
CONTINUOUS
  0
LAYER
  5
A5E
330
A5C
100
AcDbSymbolTableRecord
100
AcDbLayerTableRecord
  2
none
 70
    0
 62
    7
  6
CONTINUOUS
  0
LAYER
  5
A5F
330
A5C
100
AcDbSymbolTableRecord
100
AcDbLayerTableRecord
  2
Shape2DView004
 70
    0
 62
    7
  6
CONTINUOUS
  0
ENDTAB
  0
TABLE
  2
STYLE
  5
70
330
0
100
AcDbSymbolTable
 70
     2
  0
STYLE
  5
71
330
70
100
AcDbSymbolTableRecord
100
AcDbTextStyleTableRecord
  2
STANDARD
 70
     0
 40
0.0
 41
1.0
 50
0.0
 71
     0
 42
2.5
  3
arial.ttf
  4

  0
STYLE
  5
72
330
70
100
AcDbSymbolTableRecord
100
AcDbTextStyleTableRecord
  2
ANNOTATIVE
 70
     0
 40
0.0
 41
1.0
 50
0.0
 71
     0
 42
2.5
  3
arial.ttf
  4

  0
ENDTAB
  0
TABLE
  2
VIEW
  5
73
330
0
100
AcDbSymbolTable
 70
     0
  0
ENDTAB
  0
TABLE
  2
UCS
  5
74
330
0
100
AcDbSymbolTable
 70
     0
  0
ENDTAB
  0
TABLE
  2
APPID
  5
75
330
0
100
AcDbSymbolTable
 70
     2
  0
APPID
  5
76
330
75
100
AcDbSymbolTableRecord
100
AcDbRegAppTableRecord
  2
ACAD
 70
     0
  0
APPID
  5
77
330
75
100
AcDbSymbolTableRecord
100
AcDbRegAppTableRecord
  2
ACADANNOTATIVE
 70
     0
  0
ENDTAB
  0
TABLE
  2
DIMSTYLE
  5
78
330
0
100
AcDbSymbolTable
 70
     2
  0
DIMSTYLE
105
79
330
78
100
AcDbSymbolTableRecord
100
AcDbDimStyleTableRecord
  2
STANDARD
 70
     0
  3

  4

  5

  6

  7

 40
0.0
 41
2.5
 42
0.625
 43
3.75
 44
1.25
 45
0.0
 46
0.0
 47
0.0
 48
0.0
140
2.5
141
2.5
142
0.0
143
0.03937007874016
144
1.0
145
0.0
146
1.0
147
0.625
 71
     0
 72
     0
 73
     0
 74
     0
 75
     0
 76
     0
 77
     1
 78
     8
170
     0
171
     3
172
     1
173
     0
174
     0
175
     0
176
     0
177
     0
178
     0
270
     2
271
     2
272
     2
273
     2
274
     3
340
71
275
     0
280
     0
281
     0
282
     0
283
     0
284
     8
285
     0
286
     0
287
     3
288
     0
  0
ENDTAB
  0
TABLE
  2
BLOCK_RECORD
  5
A01
330
0
100
AcDbSymbolTable
  70
5
  0
BLOCK_RECORD
  5
A02
330
A01
100
AcDbSymbolTableRecord
100
AcDbBlockTableRecord
  2
*MODEL_SPACE
  0
BLOCK_RECORD
  5
A03
330
A01
100
AcDbSymbolTableRecord
100
AcDbBlockTableRecord
  2
*PAPER_SPACE
  0
ENDTAB
  0
ENDSEC
  0
SECTION
  2
BLOCKS
  0
BLOCK
  5
A04
330
A02
100
AcDbEntity
  8
0
100
AcDbBlockBegin
  2
*MODEL_SPACE
 70
   0
 10
0
 20
0
 30
0
  3
*MODEL_SPACE
  1
 
  0
ENDBLK
  5
A05
330
A02
100
AcDbEntity
  8
0
100
AcDbBlockEnd
  0
BLOCK
  5
A06
330
A03
100
AcDbEntity
 67
1
  8
0
100
AcDbBlockBegin
  2
*PAPER_SPACE
 70
   0
 10
0
 20
0
 30
0
  3
*PAPER_SPACE
  1
 
  0
ENDBLK
  5
A07
330
A03
100
AcDbEntity
 67
    1
  8
0
100
AcDbBlockEnd
  0
ENDSEC
  0
SECTION
  2
ENTITIES
  0
LINE
  5
A08
330
A02
100
AcDbEntity
  8
Shape2DView004
100
AcDbLine
 10
-11.85
 20
-83.6
 30
0
 11
-11.85
 21
7.4
 31
0
  0
ARC
  5
A09
330
A02
100
AcDbEntity
  8
Shape2DView004
100
AcDbCircle
 10
-6.35
 20
-83.6
 30
0
 40
5.5
100
AcDbArc
 50
180
 51
-90
  0
ARC
  5
A0A
330
A02
100
AcDbEntity
  8
Shape2DView004
100
AcDbCircle
 10
-6.35
 20
7.4
 30
0
 40
5.5
100
AcDbArc
 50
90
 51
180
  0
LINE
  5
A0B
330
A02
100
AcDbEntity
  8
Shape2DView004
100
AcDbLine
 10
120.65
 20
-89.1
 30
0
 11
-6.35
 21
-89.1
 31
0
  0
ARC
  5
A0C
330
A02
100
AcDbEntity
  8
Shape2DView004
100
AcDbCircle
 10
120.65
 20
-83.6
 30
0
 40
5.5
100
AcDbArc
 50
-90
 51
0
  0
LINE
  5
A0D
330
A02
100
AcDbEntity
  8
Shape2DView004
100
AcDbLine
 10
126.15
 20
7.4
 30
0
 11
126.15
 21
-83.6
 31
0
  0
ARC
  5
A0E
330
A02
100
AcDbEntity
  8
Shape2DView004
100
AcDbCircle
 10
120.65
 20
7.4
 30
0
 40
5.5
100
AcDbArc
 50
0
 51
90
  0
LINE
  5
A0F
330
A02
100
AcDbEntity
  8
Shape2DView004
100
AcDbLine
 10
101.25
 20
12.9
 30
0
 11
120.65
 21
12.9
 31
0
  0
LINE
  5
A10
330
A02
100
AcDbEntity
  8
Shape2DView004
100
AcDbLine
 10
101.25
 20
12.9
 30
0
 11
101.25
 21
3.96403
 31
0
  0
ARC
  5
A11
330
A02
100
AcDbEntity
  8
Shape2DView004
100
AcDbCircle
 10
103.883
 20
6.975
 30
0
 40
4
100
AcDbArc
 50
-131.172
 51
-90
  0
LINE
  5
A12
330
A02
100
AcDbEntity
  8
Shape2DView004
100
AcDbLine
 10
103.883
 20
2.975
 30
0
 11
117.275
 21
2.975
 31
0
  0
ARC
  5
A13
330
A02
100
AcDbEntity
  8
Shape2DView004
100
AcDbCircle
 10
117.275
 20
-0.025
 30
0
 40
3
100
AcDbArc
 50
0
 51
90
  0
LINE
  5
A14
330
A02
100
AcDbEntity
  8
Shape2DView004
100
AcDbLine
 10
120.275
 20
-76.175
 30
0
 11
120.275
 21
-0.025
 31
0
  0
ARC
  5
A15
330
A02
100
AcDbEntity
  8
Shape2DView004
100
AcDbCircle
 10
117.275
 20
-76.175
 30
0
 40
3
100
AcDbArc
 50
-90
 51
-2.71407e-13
  0
LINE
  5
A16
330
A02
100
AcDbEntity
  8
Shape2DView004
100
AcDbLine
 10
103.883
 20
-79.175
 30
0
 11
117.275
 21
-79.175
 31
0
  0
ARC
  5
A17
330
A02
100
AcDbEntity
  8
Shape2DView004
100
AcDbCircle
 10
103.883
 20
-83.175
 30
0
 40
4
100
AcDbArc
 50
90
 51
165.522
  0
LINE
  5
A18
330
A02
100
AcDbEntity
  8
Shape2DView004
100
AcDbLine
 10
100.01
 20
-82.175
 30
0
 11
99.623
 21
-83.675
 31
0
  0
ARC
  5
A19
330
A02
100
AcDbEntity
  8
Shape2DView004
100
AcDbCircle
 10
95.75
 20
-82.675
 30
0
 40
4
100
AcDbArc
 50
-90
 51
-14.4775
  0
LINE
  5
A1A
330
A02
100
AcDbEntity
  8
Shape2DView004
100
AcDbLine
 10
95.75
 20
-86.675
 30
0
 11
94.75
 21
-86.675
 31
0
  0
ARC
  5
A1B
330
A02
100
AcDbEntity
  8
Shape2DView004
100
AcDbCircle
 10
94.75
 20
-82.675
 30
0
 40
4
100
AcDbArc
 50
-165.522
 51
-90
  0
LINE
  5
A1C
330
A02
100
AcDbEntity
  8
Shape2DView004
100
AcDbLine
 10
90.877
 20
-83.675
 30
0
 11
90.4897
 21
-82.175
 31
0
  0
ARC
  5
A1D
330
A02
100
AcDbEntity
  8
Shape2DView004
100
AcDbCircle
 10
86.6167
 20
-83.175
 30
0
 40
4
100
AcDbArc
 50
14.4775
 51
90
  0
LINE
  5
A1E
330
A02
100
AcDbEntity
  8
Shape2DView004
100
AcDbLine
 10
27.6833
 20
-79.175
 30
0
 11
86.6167
 21
-79.175
 31
0
  0
ARC
  5
A1F
330
A02
100
AcDbEntity
  8
Shape2DView004
100
AcDbCircle
 10
27.6833
 20
-83.175
 30
0
 40
4
100
AcDbArc
 50
90
 51
165.522
  0
LINE
  5
A20
330
A02
100
AcDbEntity
  8
Shape2DView004
100
AcDbLine
 10
23.423
 20
-83.675
 30
0
 11
23.8103
 21
-82.175
 31
0
  0
ARC
  5
A21
330
A02
100
AcDbEntity
  8
Shape2DView004
100
AcDbCircle
 10
19.55
 20
-82.675
 30
0
 40
4
100
AcDbArc
 50
-90
 51
-14.4775
  0
LINE
  5
A22
330
A02
100
AcDbEntity
  8
Shape2DView004
100
AcDbLine
 10
18.55
 20
-86.675
 30
0
 11
19.55
 21
-86.675
 31
0
  0
ARC
  5
A23
330
A02
100
AcDbEntity
  8
Shape2DView004
100
AcDbCircle
 10
18.55
 20
-82.675
 30
0
 40
4
100
AcDbArc
 50
-165.522
 51
-90
  0
LINE
  5
A24
330
A02
100
AcDbEntity
  8
Shape2DView004
100
AcDbLine
 10
14.2897
 20
-82.175
 30
0
 11
14.677
 21
-83.675
 31
0
  0
ARC
  5
A25
330
A02
100
AcDbEntity
  8
Shape2DView004
100
AcDbCircle
 10
10.4167
 20
-83.175
 30
0
 40
4
100
AcDbArc
 50
14.4775
 51
90
  0
LINE
  5
A26
330
A02
100
AcDbEntity
  8
Shape2DView004
100
AcDbLine
 10
-2.975
 20
-79.175
 30
0
 11
10.4167
 21
-79.175
 31
0
  0
ARC
  5
A27
330
A02
100
AcDbEntity
  8
Shape2DView004
100
AcDbCircle
 10
-2.975
 20
-76.175
 30
0
 40
3
100
AcDbArc
 50
180
 51
-90
  0
LINE
  5
A28
330
A02
100
AcDbEntity
  8
Shape2DView004
100
AcDbLine
 10
-5.975
 20
-76.175
 30
0
 11
-5.975
 21
-0.025
 31
0
  0
ARC
  5
A29
330
A02
100
AcDbEntity
  8
Shape2DView004
100
AcDbCircle
 10
-2.975
 20
-0.025
 30
0
 40
3
100
AcDbArc
 50
90
 51
180
  0
LINE
  5
A2A
330
A02
100
AcDbEntity
  8
Shape2DView004
100
AcDbLine
 10
-2.975
 20
2.975
 30
0
 11
10.4167
 21
2.975
 31
0
  0
ARC
  5
A2B
330
A02
100
AcDbEntity
  8
Shape2DView004
100
AcDbCircle
 10
10.4167
 20
6.975
 30
0
 40
4
100
AcDbArc
 50
-90
 51
-48.8284
  0
LINE
  5
A2C
330
A02
100
AcDbEntity
  8
Shape2DView004
100
AcDbLine
 10
13.05
 20
3.96403
 30
0
 11
13.05
 21
12.9
 31
0
  0
LINE
  5
A2D
330
A02
100
AcDbEntity
  8
Shape2DView004
100
AcDbLine
 10
-6.35
 20
12.9
 30
0
 11
13.05
 21
12.9
 31
0
  0
CIRCLE
  5
A2E
330
A02
100
AcDbEntity
  8
Shape2DView004
100
AcDbCircle
 10
120.65
 20
-83.6
 40
2
  0
CIRCLE
  5
A2F
330
A02
100
AcDbEntity
  8
Shape2DView004
100
AcDbCircle
 10
57.15
 20
-83.6
 40
2
  0
CIRCLE
  5
A30
330
A02
100
AcDbEntity
  8
Shape2DView004
100
AcDbCircle
 10
-6.35
 20
-83.6
 40
2
  0
CIRCLE
  5
A31
330
A02
100
AcDbEntity
  8
Shape2DView004
100
AcDbCircle
 10
120.65
 20
7.4
 40
2
  0
CIRCLE
  5
A32
330
A02
100
AcDbEntity
  8
Shape2DView004
100
AcDbCircle
 10
-6.35
 20
7.4
 40
2
  0
LINE
  5
A33
330
A02
100
AcDbEntity
  8
Shape2DView004
100
AcDbLine
 10
101.25
 20
12.9
 30
0
 11
89.25
 21
12.9
 31
0
  0
LINE
  5
A34
330
A02
100
AcDbEntity
  8
Shape2DView004
100
AcDbLine
 10
82.15
 20
12.9
 30
0
 11
89.25
 21
12.9
 31
0
  0
LINE
  5
A35
330
A02
100
AcDbEntity
  8
Shape2DView004
100
AcDbLine
 10
82.15
 20
12.9
 30
0
 11
70.15
 21
12.9
 31
0
  0
LINE
  5
A36
330
A02
100
AcDbEntity
  8
Shape2DView004
100
AcDbLine
 10
25.05
 20
12.9
 30
0
 11
70.15
 21
12.9
 31
0
  0
LINE
  5
A37
330
A02
100
AcDbEntity
  8
Shape2DView004
100
AcDbLine
 10
25.05
 20
12.9
 30
0
 11
13.05
 21
12.9
 31
0
  0
ARC
  5
A38
330
A02
100
AcDbEntity
  8
Shape2DView004
100
AcDbCircle
 10
103.883
 20
6.975
 30
0
 40
4
100
AcDbArc
 50
-165.522
 51
-131.172
  0
ARC
  5
A39
330
A02
100
AcDbEntity
  8
Shape2DView004
100
AcDbCircle
 10
10.4167
 20
6.975
 30
0
 40
4
100
AcDbArc
 50
-48.8284
 51
-14.4775
  0
ARC
  5
A3A
330
A02
100
AcDbEntity
  8
Shape2DView004
100
AcDbCircle
 10
86.5652
 20
7.02259
 30
0
 40
4.04759
100
AcDbArc
 50
-48.4482
 51
-15
  0
LINE
  5
A3B
330
A02
100
AcDbEntity
  8
Shape2DView004
100
AcDbLine
 10
90.4749
 20
5.975
 30
0
 11
90.8863
 21
7.51028
 31
0
  0
ARC
  5
A3C
330
A02
100
AcDbEntity
  8
Shape2DView004
100
AcDbCircle
 10
94.75
 20
6.475
 30
0
 40
4
100
AcDbArc
 50
90
 51
165
  0
LINE
  5
A3D
330
A02
100
AcDbEntity
  8
Shape2DView004
100
AcDbLine
 10
94.75
 20
10.475
 30
0
 11
95.75
 21
10.475
 31
0
  0
ARC
  5
A3E
330
A02
100
AcDbEntity
  8
Shape2DView004
100
AcDbCircle
 10
95.75
 20
6.475
 30
0
 40
4
100
AcDbArc
 50
14.4775
 51
90
  0
LINE
  5
A3F
330
A02
100
AcDbEntity
  8
Shape2DView004
100
AcDbLine
 10
99.623
 20
7.475
 30
0
 11
100.01
 21
5.975
 31
0
  0
LINE
  5
A40
330
A02
100
AcDbEntity
  8
Shape2DView004
100
AcDbLine
 10
89.25
 20
3.99355
 30
0
 11
89.25
 21
12.9
 31
0
  0
LINE
  5
A41
330
A02
100
AcDbEntity
  8
Shape2DView004
100
AcDbLine
 10
82.15
 20
12.9
 30
0
 11
82.15
 21
2.975
 31
0
  0
LINE
  5
A42
330
A02
100
AcDbEntity
  8
Shape2DView004
100
AcDbLine
 10
82.15
 20
2.975
 30
0
 11
86.5652
 21
2.975
 31
0
  0
ARC
  5
A43
330
A02
100
AcDbEntity
  8
Shape2DView004
100
AcDbCircle
 10
86.5652
 20
7.02259
 30
0
 40
4.04759
100
AcDbArc
 50
-90
 51
-48.4482
  0
LINE
  5
A44
330
A02
100
AcDbEntity
  8
Shape2DView004
100
AcDbLine
 10
82.15
 20
2.975
 30
0
 11
70.15
 21
2.975
 31
0
  0
LINE
  5
A45
330
A02
100
AcDbEntity
  8
Shape2DView004
100
AcDbLine
 10
70.15
 20
2.975
 30
0
 11
70.15
 21
12.9
 31
0
  0
LINE
  5
A46
330
A02
100
AcDbEntity
  8
Shape2DView004
100
AcDbLine
 10
25.05
 20
12.9
 30
0
 11
25.05
 21
3.96403
 31
0
  0
ARC
  5
A47
330
A02
100
AcDbEntity
  8
Shape2DView004
100
AcDbCircle
 10
27.6833
 20
6.975
 30
0
 40
4
100
AcDbArc
 50
-131.172
 51
-90
  0
LINE
  5
A48
330
A02
100
AcDbEntity
  8
Shape2DView004
100
AcDbLine
 10
27.6833
 20
2.975
 30
0
 11
70.15
 21
2.975
 31
0
  0
CIRCLE
  5
A49
330
A02
100
AcDbEntity
  8
Shape2DView004
100
AcDbCircle
 10
57.15
 20
7.4
 40
2
  0
LINE
  5
A4A
330
A02
100
AcDbEntity
  8
Shape2DView004
100
AcDbLine
 10
14.677
 20
7.475
 30
0
 11
14.2897
 21
5.975
 31
0
  0
ARC
  5
A4B
330
A02
100
AcDbEntity
  8
Shape2DView004
100
AcDbCircle
 10
18.55
 20
6.475
 30
0
 40
4
100
AcDbArc
 50
90
 51
165.522
  0
LINE
  5
A4C
330
A02
100
AcDbEntity
  8
Shape2DView004
100
AcDbLine
 10
19.55
 20
10.475
 30
0
 11
18.55
 21
10.475
 31
0
  0
ARC
  5
A4D
330
A02
100
AcDbEntity
  8
Shape2DView004
100
AcDbCircle
 10
19.55
 20
6.475
 30
0
 40
4
100
AcDbArc
 50
14.4775
 51
90
  0
LINE
  5
A4E
330
A02
100
AcDbEntity
  8
Shape2DView004
100
AcDbLine
 10
23.8103
 20
5.975
 30
0
 11
23.423
 21
7.475
 31
0
  0
ARC
  5
A4F
330
A02
100
AcDbEntity
  8
Shape2DView004
100
AcDbCircle
 10
27.6833
 20
6.975
 30
0
 40
4
100
AcDbArc
 50
-165.522
 51
-131.172
  0
ARC
  5
A50
330
A02
100
AcDbEntity
  8
Shape2DView004
100
AcDbCircle
 10
0.52
 20
-0.52
 30
0
 40
1
100
AcDbArc
 50
90
 51
-180
  0
LINE
  5
A51
330
A02
100
AcDbEntity
  8
Shape2DView004
100
AcDbLine
 10
113.78
 20
0.48
 30
0
 11
0.52
 21
0.48
 31
0
  0
ARC
  5
A52
330
A02
100
AcDbEntity
  8
Shape2DView004
100
AcDbCircle
 10
113.78
 20
-0.52
 30
0
 40
1
100
AcDbArc
 50
1.27222e-14
 51
90
  0
LINE
  5
A53
330
A02
100
AcDbEntity
  8
Shape2DView004
100
AcDbLine
 10
114.78
 20
-75.68
 30
0
 11
114.78
 21
-0.52
 31
0
  0
ARC
  5
A54
330
A02
100
AcDbEntity
  8
Shape2DView004
100
AcDbCircle
 10
113.78
 20
-75.68
 30
0
 40
1
100
AcDbArc
 50
-90
 51
0
  0
LINE
  5
A55
330
A02
100
AcDbEntity
  8
Shape2DView004
100
AcDbLine
 10
0.52
 20
-76.68
 30
0
 11
113.78
 21
-76.68
 31
0
  0
ARC
  5
A56
330
A02
100
AcDbEntity
  8
Shape2DView004
100
AcDbCircle
 10
0.52
 20
-75.68
 30
0
 40
1
100
AcDbArc
 50
180
 51
-90
  0
LINE
  5
A57
330
A02
100
AcDbEntity
  8
Shape2DView004
100
AcDbLine
 10
-0.48
 20
-0.52
 30
0
 11
-0.48
 21
-75.68
 31
0
  0
CIRCLE
  5
A58
330
A02
100
AcDbEntity
  8
Shape2DView004
100
AcDbCircle
 10
19.05
 20
-82.175
 40
2
  0
CIRCLE
  5
A59
330
A02
100
AcDbEntity
  8
Shape2DView004
100
AcDbCircle
 10
95.25
 20
-82.175
 40
2
  0
CIRCLE
  5
A5A
330
A02
100
AcDbEntity
  8
Shape2DView004
100
AcDbCircle
 10
19.05
 20
5.975
 40
2
  0
CIRCLE
  5
A5B
330
A02
100
AcDbEntity
  8
Shape2DView004
100
AcDbCircle
 10
95.25
 20
5.975
 40
2
  0
ENDSEC
  0
SECTION
  2
OBJECTS
  0
DICTIONARY
  5
F000
330
0
100
AcDbDictionary
  3
ACAD_GROUP
350
F001
  0
DICTIONARY
  5
F001
330
F000
100
AcDbDictionary
  0
ENDSEC
  0
EOF